;Version=2
;ProjectId=114983
;Checksum=0
;Filesize=0
.BANDA:BOOL:2:35:0:b:16#02000020
.BANDAOUT:BOOL:4:18203:1:b:16#02000040
.Hexswitch:BYTE:1:0:1:b:16#02000020
.MARCHA:BOOL:1:64:0:b:16#02000020
.MARCHAIN:BOOL:4:18202:1:b:16#02000040
.PARADA:BOOL:1:65:0:b:16#02000020
.PARADAIN:BOOL:4:29976:1:b:16#02000040
